hw2/absolute_difference/simulation/qsim/absolute_difference.msim.vcd
$comment
	File created using the following command:
		vcd file absolute_difference.msim.vcd -direction
$end
$date
	Wed Apr 25 00:36:55 2018
$end
$version
	ModelSim Version 10.1d
$end
$timescale
	1ps
$end
$scope module absolute_difference_vlg_vec_tst $end
$var reg 5 ! a0 [4:0] $end
$var reg 5 " a1 [4:0] $end
$var reg 5 # a2 [4:0] $end
$var reg 5 $ a3 [4:0] $end
$var reg 5 % a4 [4:0] $end
$var reg 5 & a5 [4:0] $end
$var reg 5 ' b0 [4:0] $end
$var reg 5 ( b1 [4:0] $end
$var reg 5 ) b2 [4:0] $end
$var reg 5 * b3 [4:0] $end
$var reg 5 + b4 [4:0] $end
$var reg 5 , b5 [4:0] $end
$var wire 1 - final_diff [7] $end
$var wire 1 . final_diff [6] $end
$var wire 1 / final_diff [5] $end
$var wire 1 0 final_diff [4] $end
$var wire 1 1 final_diff [3] $end
$var wire 1 2 final_diff [2] $end
$var wire 1 3 final_diff [1] $end
$var wire 1 4 final_diff [0] $end
$var wire 1 5 sampler $end
$scope module i1 $end
$var wire 1 6 gnd $end
$var wire 1 7 vcc $end
$var wire 1 8 unknown $end
$var tri1 1 9 devclrn $end
$var tri1 1 : devpor $end
$var tri1 1 ; devoe $end
$var wire 1 < Add14~8_combout $end
$var wire 1 = Add15~0_combout $end
$var wire 1 > Add11~9 $end
$var wire 1 ? Add11~10_combout $end
$var wire 1 @ Add0~8_combout $end
$var wire 1 A Add1~0_combout $end
$var wire 1 B Add4~0_combout $end
$var wire 1 C Add5~6_combout $end
$var wire 1 D Add5~8_combout $end
$var wire 1 E Add6~0_combout $end
$var wire 1 F Add15~2_combout $end
$var wire 1 G Add3~2_combout $end
$var wire 1 H Add4~2_combout $end
$var wire 1 I Add6~2_combout $end
$var wire 1 J Add12~4_combout $end
$var wire 1 K Add1~4_combout $end
$var wire 1 L Add9~4_combout $end
$var wire 1 M Add6~5 $end
$var wire 1 N Add7~4_combout $end
$var wire 1 O Add12~6_combout $end
$var wire 1 P Add3~6_combout $end
$var wire 1 Q Add1~7 $end
$var wire 1 R Add4~6_combout $end
$var wire 1 S Add6~6_combout $end
$var wire 1 T Add6~7 $end
$var wire 1 U Add15~8_combout $end
$var wire 1 V Add12~9 $end
$var wire 1 W Add1~8_combout $end
$var wire 1 X Add1~9 $end
$var wire 1 Y Add6~8_combout $end
$var wire 1 Z Add6~9 $end
$var wire 1 [ Add7~8_combout $end
$var wire 1 \ Add12~10_combout $end
$var wire 1 ] Add1~10_combout $end
$var wire 1 ^ Add4~11 $end
$var wire 1 _ Add6~10_combout $end
$var wire 1 ` Add7~10_combout $end
$var wire 1 a Add4~12_combout $end
$var wire 1 b a5[4]~input_o $end
$var wire 1 c a5[3]~input_o $end
$var wire 1 d a5[2]~input_o $end
$var wire 1 e b5[1]~input_o $end
$var wire 1 f a5[0]~input_o $end
$var wire 1 g a4[4]~input_o $end
$var wire 1 h b4[3]~input_o $end
$var wire 1 i a4[2]~input_o $end
$var wire 1 j a4[1]~input_o $end
$var wire 1 k a4[0]~input_o $end
$var wire 1 l b1[3]~input_o $end
$var wire 1 m b1[2]~input_o $end
$var wire 1 n a1[1]~input_o $end
$var wire 1 o a1[0]~input_o $end
$var wire 1 p a0[3]~input_o $end
$var wire 1 q a0[2]~input_o $end
$var wire 1 r a0[1]~input_o $end
$var wire 1 s a0[0]~input_o $end
$var wire 1 t b3[3]~input_o $end
$var wire 1 u a3[2]~input_o $end
$var wire 1 v a3[1]~input_o $end
$var wire 1 w a3[0]~input_o $end
$var wire 1 x a2[4]~input_o $end
$var wire 1 y b2[3]~input_o $end
$var wire 1 z a2[2]~input_o $end
$var wire 1 { b2[1]~input_o $end
$var wire 1 | a2[0]~input_o $end
$var wire 1 } final_diff[0]~output_o $end
$var wire 1 ~ final_diff[1]~output_o $end
$var wire 1 !! final_diff[2]~output_o $end
$var wire 1 "! final_diff[3]~output_o $end
$var wire 1 #! final_diff[4]~output_o $end
$var wire 1 $! final_diff[5]~output_o $end
$var wire 1 %! final_diff[6]~output_o $end
$var wire 1 &! final_diff[7]~output_o $end
$var wire 1 '! a3[4]~input_o $end
$var wire 1 (! b3[4]~input_o $end
$var wire 1 )! a3[3]~input_o $end
$var wire 1 *! b3[2]~input_o $end
$var wire 1 +! b3[1]~input_o $end
$var wire 1 ,! b3[0]~input_o $end
$var wire 1 -! Add8~1 $end
$var wire 1 .! Add8~3 $end
$var wire 1 /! Add8~5 $end
$var wire 1 0! Add8~7 $end
$var wire 1 1! Add8~9 $end
$var wire 1 2! Add8~10_combout $end
$var wire 1 3! Add8~0_combout $end
$var wire 1 4! abs_diffs~4_combout $end
$var wire 1 5! Add9~0_combout $end
$var wire 1 6! Add7~0_combout $end
$var wire 1 7! sums[3][0]~0_combout $end
$var wire 1 8! b4[0]~input_o $end
$var wire 1 9! Add11~0_combout $end
$var wire 1 :! abs_diffs~1_combout $end
$var wire 1 ;! Add12~0_combout $end
$var wire 1 <! Add13~0_combout $end
$var wire 1 =! Add16~0_combout $end
$var wire 1 >! Add8~2_combout $end
$var wire 1 ?! Add9~1 $end
$var wire 1 @! Add9~2_combout $end
$var wire 1 A! Add7~1 $end
$var wire 1 B! Add7~2_combout $end
$var wire 1 C! sums[3][0]~1 $end
$var wire 1 D! sums[3][1]~2_combout $end
$var wire 1 E! b4[1]~input_o $end
$var wire 1 F! Add11~1 $end
$var wire 1 G! Add11~2_combout $end
$var wire 1 H! Add12~1 $end
$var wire 1 I! Add12~2_combout $end
$var wire 1 J! Add13~1 $end
$var wire 1 K! Add13~2_combout $end
$var wire 1 L! Add16~1 $end
$var wire 1 M! Add16~2_combout $end
$var wire 1 N! b5[2]~input_o $end
$var wire 1 O! a5[1]~input_o $end
$var wire 1 P! b5[0]~input_o $end
$var wire 1 Q! Add14~1 $end
$var wire 1 R! Add14~3 $end
$var wire 1 S! Add14~4_combout $end
$var wire 1 T! Add14~2_combout $end
$var wire 1 U! Add14~0_combout $end
$var wire 1 V! abs_diffs~0_combout $end
$var wire 1 W! Add15~1 $end
$var wire 1 X! Add15~3 $end
$var wire 1 Y! Add15~4_combout $end
$var wire 1 Z! Add13~3 $end
$var wire 1 [! Add13~4_combout $end
$var wire 1 \! a1[2]~input_o $end
$var wire 1 ]! b1[1]~input_o $end
$var wire 1 ^! b1[0]~input_o $end
$var wire 1 _! Add2~1 $end
$var wire 1 `! Add2~3 $end
$var wire 1 a! Add2~4_combout $end
$var wire 1 b! Add2~2_combout $end
$var wire 1 c! a1[4]~input_o $end
$var wire 1 d! b1[4]~input_o $end
$var wire 1 e! a1[3]~input_o $end
$var wire 1 f! Add2~5 $end
$var wire 1 g! Add2~7 $end
$var wire 1 h! Add2~9 $end
$var wire 1 i! Add2~10_combout $end
$var wire 1 j! Add2~0_combout $end
$var wire 1 k! abs_diffs~2_combout $end
$var wire 1 l! Add3~1 $end
$var wire 1 m! Add3~3 $end
$var wire 1 n! Add3~4_combout $end
$var wire 1 o! b0[1]~input_o $end
$var wire 1 p! b0[0]~input_o $end
$var wire 1 q! Add0~1 $end
$var wire 1 r! Add0~2_combout $end
$var wire 1 s! b0[4]~input_o $end
$var wire 1 t! a0[4]~input_o $end
$var wire 1 u! b0[3]~input_o $end
$var wire 1 v! b0[2]~input_o $end
$var wire 1 w! Add0~3 $end
$var wire 1 x! Add0~5 $end
$var wire 1 y! Add0~7 $end
$var wire 1 z! Add0~9 $end
$var wire 1 {! Add0~10_combout $end
$var wire 1 |! Add0~0_combout $end
$var wire 1 }! abs_diffs~3_combout $end
$var wire 1 ~! Add1~1 $end
$var wire 1 !" Add1~2_combout $end
$var wire 1 "" Add3~0_combout $end
$var wire 1 #" Add4~1 $end
$var wire 1 $" Add4~3 $end
$var wire 1 %" Add4~4_combout $end
$var wire 1 &" sums[3][1]~3 $end
$var wire 1 '" sums[3][2]~4_combout $end
$var wire 1 (" Add16~3 $end
$var wire 1 )" Add16~4_combout $end
$var wire 1 *" Add8~6_combout $end
$var wire 1 +" Add8~4_combout $end
$var wire 1 ," Add9~3 $end
$var wire 1 -" Add9~5 $end
$var wire 1 ." Add9~6_combout $end
$var wire 1 /" b2[2]~input_o $end
$var wire 1 0" a2[1]~input_o $end
$var wire 1 1" b2[0]~input_o $end
$var wire 1 2" Add5~1 $end
$var wire 1 3" Add5~3 $end
$var wire 1 4" Add5~4_combout $end
$var wire 1 5" Add5~2_combout $end
$var wire 1 6" b2[4]~input_o $end
$var wire 1 7" a2[3]~input_o $end
$var wire 1 8" Add5~5 $end
$var wire 1 9" Add5~7 $end
$var wire 1 :" Add5~9 $end
$var wire 1 ;" Add5~10_combout $end
$var wire 1 <" Add5~0_combout $end
$var wire 1 =" abs_diffs~5_combout $end
$var wire 1 >" Add6~1 $end
$var wire 1 ?" Add6~3 $end
$var wire 1 @" Add6~4_combout $end
$var wire 1 A" Add7~3 $end
$var wire 1 B" Add7~5 $end
$var wire 1 C" Add7~6_combout $end
$var wire 1 D" sums[3][2]~5 $end
$var wire 1 E" sums[3][3]~6_combout $end
$var wire 1 F" b5[3]~input_o $end
$var wire 1 G" Add14~5 $end
$var wire 1 H" Add14~6_combout $end
$var wire 1 I" Add15~5 $end
$var wire 1 J" Add15~6_combout $end
$var wire 1 K" Add13~5 $end
$var wire 1 L" Add13~6_combout $end
$var wire 1 M" Add16~5 $end
$var wire 1 N" Add16~6_combout $end
$var wire 1 O" b4[4]~input_o $end
$var wire 1 P" a4[3]~input_o $end
$var wire 1 Q" b4[2]~input_o $end
$var wire 1 R" Add11~3 $end
$var wire 1 S" Add11~5 $end
$var wire 1 T" Add11~7 $end
$var wire 1 U" Add11~8_combout $end
$var wire 1 V" Add11~6_combout $end
$var wire 1 W" Add11~4_combout $end
$var wire 1 X" Add12~3 $end
$var wire 1 Y" Add12~5 $end
$var wire 1 Z" Add12~7 $end
$var wire 1 [" Add12~8_combout $end
$var wire 1 \" Add13~7 $end
$var wire 1 ]" Add13~8_combout $end
$var wire 1 ^" Add2~8_combout $end
$var wire 1 _" Add2~6_combout $end
$var wire 1 `" Add3~5 $end
$var wire 1 a" Add3~7 $end
$var wire 1 b" Add3~8_combout $end
$var wire 1 c" Add0~6_combout $end
$var wire 1 d" Add0~4_combout $end
$var wire 1 e" Add1~3 $end
$var wire 1 f" Add1~5 $end
$var wire 1 g" Add1~6_combout $end
$var wire 1 h" Add4~5 $end
$var wire 1 i" Add4~7 $end
$var wire 1 j" Add4~8_combout $end
$var wire 1 k" sums[3][3]~7 $end
$var wire 1 l" sums[3][4]~8_combout $end
$var wire 1 m" Add16~7 $end
$var wire 1 n" Add16~8_combout $end
$var wire 1 o" Add3~9 $end
$var wire 1 p" Add3~10_combout $end
$var wire 1 q" Add4~9 $end
$var wire 1 r" Add4~10_combout $end
$var wire 1 s" sums[3][4]~9 $end
$var wire 1 t" sums[3][5]~10_combout $end
$var wire 1 u" b5[4]~input_o $end
$var wire 1 v" Add14~7 $end
$var wire 1 w" Add14~9 $end
$var wire 1 x" Add14~10_combout $end
$var wire 1 y" Add15~7 $end
$var wire 1 z" Add15~9 $end
$var wire 1 {" Add15~10_combout $end
$var wire 1 |" Add13~9 $end
$var wire 1 }" Add13~10_combout $end
$var wire 1 ~" Add16~9 $end
$var wire 1 !# Add16~10_combout $end
$var wire 1 "# Add8~8_combout $end
$var wire 1 ## Add9~7 $end
$var wire 1 $# Add9~9 $end
$var wire 1 %# Add9~10_combout $end
$var wire 1 &# Add9~8_combout $end
$var wire 1 '# Add7~7 $end
$var wire 1 (# Add7~9 $end
$var wire 1 )# Add7~11 $end
$var wire 1 *# Add7~12_combout $end
$var wire 1 +# sums[3][5]~11 $end
$var wire 1 ,# sums[3][6]~12_combout $end
$var wire 1 -# Add13~11 $end
$var wire 1 .# Add13~12_combout $end
$var wire 1 /# Add16~11 $end
$var wire 1 0# Add16~12_combout $end
$var wire 1 1# sums[3][6]~13 $end
$var wire 1 2# sums[3][7]~14_combout $end
$var wire 1 3# Add16~13 $end
$var wire 1 4# Add16~14_combout $end
$upscope $end
$upscope $end
$enddefinitions $end
#0
$dumpvars
b1111 !
b10000 "
b1111 #
b10000 $
b1111 %
b10000 &
b10000 '
b1111 (
b10000 )
b1111 *
b10000 +
b1111 ,
x4
x3
x2
x1
x0
x/
x.
x-
x5
06
17
x8
19
1:
1;
x<
x=
x>
x?
x@
xA
xB
xC
xD
xE
xF
xG
xH
xI
xJ
xK
xL
xM
xN
xO
xP
xQ
xR
xS
xT
xU
xV
xW
xX
xY
xZ
x[
x\
x]
x^
x_
x`
xa
1b
0c
0d
1e
0f
0g
0h
1i
1j
1k
1l
1m
0n
0o
1p
1q
1r
1s
1t
0u
0v
0w
0x
0y
1z
0{
1|
x}
x~
x!!
x"!
x#!
x$!
x%!
x&!
1'!
0(!
0)!
1*!
1+!
1,!
x-!
x.!
x/!
x0!
x1!
x2!
x3!
x4!
x5!
x6!
x7!
08!
x9!
x:!
x;!
x<!
x=!
x>!
x?!
x@!
xA!
xB!
xC!
xD!
0E!
xF!
xG!
xH!
xI!
xJ!
xK!
xL!
xM!
1N!
0O!
1P!
xQ!
xR!
xS!
xT!
xU!
xV!
xW!
xX!
xY!
xZ!
x[!
0\!
1]!
1^!
x_!
x`!
xa!
xb!
1c!
0d!
0e!
xf!
xg!
xh!
xi!
xj!
xk!
xl!
xm!
xn!
0o!
0p!
xq!
xr!
1s!
0t!
0u!
0v!
xw!
xx!
xy!
xz!
x{!
x|!
x}!
x~!
x!"
x""
x#"
x$"
x%"
x&"
x'"
x("
x)"
x*"
x+"
x,"
x-"
x."
0/"
10"
01"
x2"
x3"
x4"
x5"
16"
17"
x8"
x9"
x:"
x;"
x<"
x="
x>"
x?"
x@"
xA"
xB"
xC"
xD"
xE"
1F"
xG"
xH"
xI"
xJ"
xK"
xL"
xM"
xN"
1O"
1P"
0Q"
xR"
xS"
xT"
xU"
xV"
xW"
xX"
xY"
xZ"
x["
x\"
x]"
x^"
x_"
x`"
xa"
xb"
xc"
xd"
xe"
xf"
xg"
xh"
xi"
xj"
xk"
xl"
xm"
xn"
xo"
xp"
xq"
xr"
xs"
xt"
0u"
xv"
xw"
xx"
xy"
xz"
x{"
x|"
x}"
x~"
x!#
x"#
x##
x$#
x%#
x&#
x'#
x(#
x)#
x*#
x+#
x,#
x-#
x.#
x/#
x0#
x1#
x2#
x3#
x4#
$end
#1915
1w"
#2370
1x"
#3778
1q!
#3836
0w!
#3894
1x!
#3906
1F!
#3937
0_!
#3969
1j!
#3986
12"
#3999
19!
#4032
0T"
#4065
0R"
#4069
0>
#4086
0Q!
#4093
11!
#4098
03"
#4110
1U!
#4123
1S"
#4126
0y!
#4133
0:"
#4156
18"
#4197
1R!
#4214
09"
#4301
1h!
#4318
1`!
#4335
1.!
#4340
0z!
#4349
1c"
#4361
1G!
#4374
0b!
#4376
0f!
0G"
#4397
1r!
#4403
0V!
#4428
1g!
10!
#4441
15"
1W"
#4487
1U"
#4496
1v"
#4506
0?
#4512
0/!
#4523
0T!
#4548
12!
#4570
0;"
#4578
1V"
#4581
1@
#4586
1|!
#4634
0S!
#4669
1D
#4696
0a!
#4730
1d"
#4736
0-!
#4756
1i!
#4760
13!
#4772
0+"
#4777
0{!
#4813
0H"
0_"
#4826
1C
#4836
14"
#4865
0"#
0^"
#4915
1<"
#4933
0<
#4949
0*"
#4961
0W!
#4987
1=
#5019
1X!
#5056
04!
#5077
0I"
#5129
0H!
#5135
1y"
#5162
1:!
#5173
0>!
#5187
1X"
#5193
0z"
#5197
0>"
#5220
0k!
#5221
1="
#5245
0Y"
#5255
1?"
#5292
1}!
#5303
1Z"
#5313
0M
#5361
0V
#5371
1T
#5405
0~!
#5416
1F
#5429
0Z
#5463
1e"
#5521
0f"
#5532
1J"
#5541
1Y!
#5549
1U
#5579
1Q
#5584
1I!
#5612
0?!
#5630
0{"
#5637
0X
#5638
15!
#5642
1J
#5652
1I
#5670
1,"
#5700
1O
#5710
1@"
#5728
0-"
#5758
1["
#5768
1S
#5770
1E
#5775
0l!
#5786
1##
#5798
0\
#5801
1""
#5826
1Y
#5833
1m!
#5841
1A
#5844
0$#
1;!
#5860
1!"
#5866
0_
#5891
0`"
#5918
1K
#5949
1a"
#5976
1g"
#6007
0o"
#6034
1W
#6067
1@!
#6074
0]
#6125
1L
#6183
1."
#6230
1G
#6241
1&#
#6281
0%#
#6288
1n!
#6346
1P
#6404
1b"
#6444
0p"
#7033
0A"
#7070
06!
#7095
0Z!
#7118
0'#
#7139
1A!
#7153
1K"
#7211
0\"
#7232
1B"
#7309
0B
#7340
1(#
#7386
1#"
#7403
1)#
#7453
1|"
#7488
1N
#7504
1[!
#7519
0<!
#7525
1L"
#7573
1[
#7594
1B!
#7596
1J!
#7628
0C!
#7666
1]"
#7687
1C"
#7689
0$"
#7710
1-#
#7795
1`
#7821
0i"
#7840
0*#
#7841
1H
#7898
1h"
#7908
1}"
#8039
1q"
#8051
1K!
#8077
0L!
#8084
1^
#8144
1%"
#8147
0.#
#8276
1j"
#8353
1R
#8494
1r"
#8521
0a
#8739
07!
#9158
0&"
#9216
1D"
#9219
0D!
#9274
0k"
#9332
1s"
#9390
0+#
#9526
1'"
#9684
1l"
#9765
1E"
#9772
0=!
#9908
1t"
#9913
01#
#9952
1,#
#10242
1M!
#10307
1("
#10350
02#
#10614
1M"
#10710
0m"
#10744
0)"
#10769
1~"
#10895
0/#
#10953
13#
#11069
1N"
#11165
1n"
#11224
1!#
#11332
00#
#11352
14#
#13597
0}
04
#14083
1~
13
#14894
1#!
10
#15045
1$!
1/
#15120
0!!
02
#15603
0%!
0.
#16012
1&!
1-
#16613
1"!
11
#80000
b111 !
b11 !
b1 !
b0 !
b0 "
b111 #
b11 #
b1 #
b0 #
b0 $
b111 %
b11 %
b1 %
b0 %
b0 &
b0 '
b111 (
b11 (
b1 (
b0 (
b0 )
b111 *
b11 *
b1 *
b0 *
b0 +
b111 ,
b11 ,
b1 ,
b0 ,
05
#80671
0q
0r
0|
0s!
#80681
07"
0z
00"
0P"
0l
0e
#80688
0p
#80691
0s
0]!
0t
0,!
0F"
#80698
0*!
#80701
0b
0P!
#80708
0k
#80711
0c!
0'!
0i
0j
0^!
06"
0+!
#80718
0O"
#80728
0m
0N!
#82429
0w"
#82455
1<
#83042
0U
#84075
0]"
#84389
04"
#84426
0h!
#84452
1^"
#84560
1?
#84616
1_"
#84636
0r!
#84639
0d"
#84663
01!
#84664
0|!
#84671
0n"
#84680
03!
#84689
1"#
#84698
05"
#84758
1-!
#84778
1;"
#84818
09!
#84840
0<"
#84846
0U"
#84895
0U!
#84919
1>
#84931
0V"
#84941
0@
#84943
1b!
#84949
1{!
#84971
0j!
#84973
1Q!
#84984
0}!
#84993
1*"
#85008
0@"
#85011
14!
#85014
1z!
#85031
0R!
#85039
0b"
#85049
1_!
#85063
0D
#85072
0W"
#85089
1G"
#85105
1+"
#85107
0`!
#85136
1:"
#85147
0v"
#85155
0G!
#85162
0I!
#85163
0O
#85170
0.!
#85175
0c"
#85182
0;!
#85192
0J
#85205
1w"
#85222
1V!
#85228
1/!
#85251
1H!
#85275
0&#
#85286
00!
#85302
1k!
#85304
0P
#85344
11!
#85356
0?
#85379
0S
#85401
0E
#85404
1@"
#85415
1}!
#85451
0{!
#85470
1>"
#85486
0b!
#85523
0C
#85528
0?"
#85551
0g"
#85573
0;"
#85584
0<
#85585
05!
#85586
1M
#85607
0+"
#85623
1f!
#85635
0G
#85636
1O
#85642
0x"
#85662
1?!
#85665
0*"
#85680
0."
#85681
0g!
#85692
0L
#85720
0,"
#85723
0"#
#85739
1h!
#85781
02!
#85797
0=
#85874
1W!
#85876
0""
#85932
0X!
#85953
1l!
#85964
0}!
#85979
0H!
#86003
1;!
#86011
0m!
#86012
0O
#86025
0:!
#86042
0["
#86060
0_"
#86069
1`"
#86085
0="
#86110
0!"
#86118
0^"
#86138
0W
#86139
0K
#86176
0i!
#86199
0M
#86200
0>"
#86224
1E
#86259
0Y
#86271
0W!
#86293
04!
#86295
1=
#86304
0J"
#86305
0[
#86320
1?"
#86322
0V!
#86392
1X!
#86408
0?!
#86432
15!
#86448
0n!
#86463
1L
#86529
1,"
#86551
0A!
#86570
0A
#86577
16!
#86624
0j"
#86637
0I
#86690
0k!
#86691
0E
#86698
0N
#86708
0F
#86751
0;!
#86757
0@"
#86772
1'#
#86804
0`"
#86805
0l!
#86808
0K!
#86829
0Y!
1""
#86830
0(#
#86845
0@!
#86860
1n!
#86900
05!
0l"
#86925
1m!
#86931
0=
#86943
1i"
#86966
0L
#86988
0B!
#87050
0[!
#87128
17!
#87129
0q"
#87263
1$"
#87267
0`
#87293
0'"
#87296
0""
#87321
0h"
#87341
0L"
#87362
0n!
#87428
0M!
#87566
0r"
#87609
1D!
#87611
0M"
#87640
0|"
#87650
1)"
#87669
1m"
#87674
1&"
#87677
1]"
#87703
1K!
#87729
0#"
#87732
0D"
#87753
1B
#87758
0R
#87768
1Z!
#87772
0K"
#87884
0~"
#87889
0t"
#87899
0J!
#87910
1\"
#87923
1<!
#87964
1A"
#88011
0s"
#88016
06!
#88048
1l"
#88069
1+#
#88077
0}"
#88105
1=!
#88129
1'"
#88166
0H
#88169
0E"
#88178
0B"
#88242
1n"
#88316
0)"
#88336
0K!
#88343
0#!
00
#88347
0]"
#88449
0<!
#88466
1t"
#88500
0=!
#88506
0,#
#88540
0("
#88577
1L!
#88615
0C"
#88625
07!
#88764
1/#
#88822
03#
#88841
0B
#88907
0%"
#88987
0t"
#89007
0L!
#89033
1=!
#89065
1("
#89135
17!
#89195
0N"
#89259
04#
#89260
1k"
#89462
1M!
#89520
1)"
#89568
0D!
#89697
0l"
#90069
0!#
#90271
07!
#90304
0'"
#90596
0M!
#90712
0n"
#91192
0~
03
#91304
0=!
#91327
0)"
#93773
0&!
0-
#93852
0$!
0/
#94599
0"!
01
#160000
b10 "
b100 $
b10000 %
b1000 &
b1010 &
b1 '
b10 )
b11 )
b1000 +
b1010 +
b1011 +
b10000 ,
b1 !
b10 #
b11 #
b11000 %
b11010 %
b11011 %
b11010 &
b10 (
b100 *
b11011 +
b11000 ,
b11010 ,
15
#160497
1O!
1{
18!
1|
#160507
1u
1P"
11"
1e
10"
#160515
1E!
#160517
1n
1F"
1s
1]!
#160525
1*!
#160527
1b
1c
1p!
1u"
#160535
1g
1k
#160537
1j
#160545
1O"
1h
#164198
1|!
#164251
1G!
#164265
1T!
#164386
1<"
#164504
1}!
#164635
0T!
#164655
0G!
#164692
1="
#164796
1I!
#164807
0|!
#164809
1F
#165053
1A
#165106
0<"
#165127
0}!
#165222
0F
#165241
1E
#165244
0I!
#165426
0="
#165733
0A
#166032
0E
#240000
b1010 "
b1110 "
b1111 "
b1100 $
b1110 $
b1111 $
b11011 &
b101 '
b111 )
b10100 *
b11111 +
b1001 !
b1101 !
b11111 "
b111 #
b11111 %
b10101 '
b1010 (
b11100 *
b11110 *
b11111 *
b11110 ,
b11111 ,
b11101 "
b1011 $
b11001 &
b10100 '
b101 )
b100 )
b11110 +
b1111 ,
b101 #
b1001 &
b1000 (
b1101 ,
05
#240497
1e!
1f
1s!
1q
#240507
1/"
1z
1l
#240515
1p
#240517
1)!
1t
1,!
1Q"
#240527
1v
1(!
1P!
#240535
1v!
#240537
1c!
1o
1+!
1i
#240545
1w
#240555
1N!
#240565
1\!
#240671
0O!
0{
08!
#240681
0u
01"
00"
0e
#240691
0n
0]!
#240701
0b
0p!
0u"
#243940
14"
#243968
12!
#243992
1j!
#244013
1^"
#244050
1i!
#244175
1d"
#244178
0-!
#244196
01!
#244210
13!
#244237
1"#
#244436
0z!
#244483
1@
#244528
1@"
#244557
1."
#244559
1@!
#244562
15!
#244569
0G"
#244592
1L
#244616
1S!
#244627
1v"
#244633
02!
#244641
1P
#244643
1G
#244646
1""
#244660
1>!
#244670
19!
#244676
1n!
#244682
1c"
#244685
0w"
#244729
1T!
#244762
1.!
#244763
1K
#244820
0/!
#244878
10!
#244914
1a!
#244937
0d"
#244974
1:!
#244982
04"
#244989
03!
#245024
1H"
#245058
1-!
#245071
1W
#245082
1<
#245116
0.!
#245140
1x"
#245147
14!
#245161
0T!
#245273
1F
#245275
1*"
#245287
1|!
#245290
0."
#245310
04!
#245311
1&#
#245312
05!
#245315
0"#
#245320
0L
#245495
0>!
#245502
0n!
#245525
16!
#245555
1C"
#245557
0K
#245565
1g"
#245571
1+"
#245575
1N
#245588
1B!
#245593
1}!
#245596
1<"
#245601
0@"
#245656
1;!
#245745
1=
#245759
1V!
#245902
1="
#245934
0&#
#245951
1."
#246068
1j"
#246076
17!
#246129
1B
#246140
1'"
#246142
1A
#246143
1E"
#246158
1H
#246159
1L
#246172
1R
#246176
1D!
#246206
0@!
#246241
1K!
#246316
0C"
#246326
0N
#246329
06!
#246334
0=
#246411
1W!
#246451
1E
#246469
0X!
#246491
0i"
#246549
1q"
#246553
0R
#246848
0F
#246921
0'"
#246924
1Y!
#246928
0j"
#246936
0E"
#246938
07!
#246949
1C"
#247004
1r"
#247053
1=!
#247107
0("
#247142
1N
#247144
1N"
#247165
1M"
#247223
0m"
#247259
0B!
#247306
1<!
#247350
0B
#247419
1#"
#247475
0&"
#247477
0$"
#247511
17!
#247533
1D"
#247591
0k"
#247678
1n"
#247723
16!
#247848
0K!
#247856
0H
#247874
1[!
#247883
0=!
#247913
0M"
#247932
1%"
#247945
1&"
#247950
1)"
#247960
1L!
#248003
0D"
#248022
1m"
#248046
1l"
#248061
1k"
#248299
07!
#248350
0N"
#248376
1C!
#248400
1'"
#248418
1t"
#248434
0&"
0)"
#248458
1E"
#248459
0n"
#248492
1D"
#248498
0l"
#248521
1M"
#248550
0k"
#248728
0C!
#248752
17!
#248786
1&"
#248844
0D"
#248902
1k"
#248976
1N"
#249258
0D!
#249308
0'"
#249397
1)"
#249403
0m"
#249405
1D"
#249461
1!#
#249463
0k"
#249464
0N"
#249842
0E"
#249858
1n"
#249918
1l"
#250281
1M!
#250331
0)"
#250346
1("
#250404
0M"
#250462
1m"
#250801
1)"
#253282
1$!
1/
#253587
1#!
10
#254122
1~
13
#255250
1!!
12
#320000
b11101 !
b1101 &
b11100 '
b11111 !
b1101 #
b1001 (
b1111 %
b101 &
b1100 #
b111 %
b110 %
b11011 *
b1110 +
b101 ,
b10101 "
b1001 $
b11000 '
b0 )
b101 "
b10 %
b11001 *
b11000 *
b1 ,
b0 ,
b1101 $
b111 &
b11001 '
b10 )
b11 )
b1111 +
b10000 ,
15
#320497
1r
1O!
18!
1{
#320507
17"
1u
11"
#320527
1p!
1u"
#320537
1d
1u!
1^!
#320557
1t!
#320671
0|
0e!
#320681
0P"
0/"
#320691
0,!
0F"
#320698
0*!
#320701
0c
0P!
0v
#320708
0v!
0g
0k
#320711
0i
0+!
0c!
#320718
0O"
#320728
0N!
#322246
0<
0x"
#322875
0W!
#322898
1J"
#322899
1=
#322926
0V!
#322936
0Y!
#322996
1I"
1X!
#323054
0y"
0I"
#323112
1y"
#323451
1Y!
#323535
0=
#323887
0<!
#323911
1L"
#323956
1J!
#324186
1r!
#324204
09!
#324215
0c"
#324265
1T!
#324339
1{!
#324380
15"
#324411
1K!
#324445
0L!
#324471
1=!
#324475
13"
#324477
0^"
#324488
0i!
#324500
1N"
#324503
0J!
#324524
0j!
0:!
#324527
1<!
#324533
08"
#324591
19"
#324610
0S!
#324619
0@
#324649
0:"
#324662
13!
#324679
1G"
#324688
1z!
#324737
0v"
#324766
0F!
#324790
19!
#324803
0}!
#324807
0|!
#324809
1F
#324824
1R"
#324835
1/!
#324877
1U!
#324893
00!
#324923
1V"
#324924
1I
#324930
14"
#324940
0K!
#324963
0A
#324966
1K
#324968
14!
#324969
09"
#325004
1T"
#325018
1_"
#325020
0S"
#325027
1:"
#325032
1~!
#325056
02"
#325062
0>
#325094
1:!
#325098
1S!
#325099
1g!
#325104
0=!
#325125
0{!
#325137
1}!
#325147
0P
#325148
0G
#325157
0h!
#325169
0""
#325172
1n!
#325180
1V!
#325181
1L!
#325192
1<
#325221
1G!
#325250
0;!
#325263
0H"
#325272
0*"
#325348
1"#
#325438
1d"
#325457
0V"
#325459
1U"
#325493
05"
#325517
1?
15!
#325518
1@"
#325525
04"
#325554
1^"
#325598
18"
#325612
1i!
#325613
1O
#325638
0}!
#325695
1P
#325730
1=
#325752
0e"
#325753
0~!
#325766
1I!
#325774
1U
#325777
1K!
1A
#325783
0g"
#325810
1f"
#325811
1e"
#325812
0W
#325850
0J"
#325869
0f"
#325935
1&#
#325980
0."
#326053
1C
#326078
1k!
#326080
0I
#326119
0I!
#326136
0:!
#326141
0%"
#326144
0@"
1J
#326205
1G
#326208
1H!
1!"
1""
#326213
0P
#326226
1B!
#326228
1h"
#326243
0n!
#326244
0A
#326303
0("
#326361
1M"
#326365
0M!
#326419
0m"
#326477
1~"
#326505
06!
#326535
0/#
#326582
1A!
#326640
0A"
#326652
0""
#326663
1I!
#326698
1B"
#326729
1l!
#326733
1S
#326740
0)"
#326781
1]"
#326787
0m!
#326798
0N"
#326803
0q"
#326811
0H!
#326814
1D!
#326837
1;!
#326842
1j"
#326856
0n"
#326887
0L"
#326914
0!#
#326943
1[
#326990
10#
#327019
0B!
#327077
0N
#327114
07!
#327166
0G
#327240
0r"
#327242
1n!
#327248
0I!
#327256
1H
#327346
1n"
#327403
0#"
#327421
1B!
#327427
1B
#327438
1L"
#327486
1A"
#327503
0l"
#327507
0D"
#327508
1N"
#327544
0B"
#327565
1k"
#327573
1m"
#327787
1R
#327801
1M!
#327840
0H
#327852
1i"
#327941
1N
#327962
1E"
#327964
0m"
#328001
0[!
#328026
0N"
#328088
1K"
#328095
0L!
