hw4/sync_counter/simulation/qsim/sync_counter.msim.vcd
$comment
	File created using the following command:
		vcd file sync_counter.msim.vcd -direction
$end
$date
	Sun May 13 23:49:04 2018
$end
$version
	ModelSim Version 10.1d
$end
$timescale
	1ps
$end
$scope module sync_counter_vlg_vec_tst $end
$var reg 1 ! a $end
$var reg 1 " b $end
$var reg 1 # clk $end
$var wire 1 $ q_vec [3] $end
$var wire 1 % q_vec [2] $end
$var wire 1 & q_vec [1] $end
$var wire 1 ' q_vec [0] $end
$var wire 1 ( sampler $end
$scope module i1 $end
$var wire 1 ) gnd $end
$var wire 1 * vcc $end
$var wire 1 + unknown $end
$var tri1 1 , devclrn $end
$var tri1 1 - devpor $end
$var tri1 1 . devoe $end
$var wire 1 / b~combout $end
$var wire 1 0 clk~combout $end
$var wire 1 1 clk~clkctrl_outclk $end
$var wire 1 2 a~combout $end
$var wire 1 3 cell|q~0_combout $end
$var wire 1 4 cell|q~regout $end
$var wire 1 5 gen:1:cells|q~0_combout $end
$var wire 1 6 gen:1:cells|q~regout $end
$var wire 1 7 gen:2:cells|x~combout $end
$var wire 1 8 gen:2:cells|q~0_combout $end
$var wire 1 9 gen:2:cells|q~regout $end
$var wire 1 : gen:3:cells|q~0_combout $end
$var wire 1 ; gen:3:cells|q~regout $end
$upscope $end
$upscope $end
$enddefinitions $end
#0
$dumpvars
1!
1"
0#
x'
x&
x%
x$
x(
0)
1*
x+
1,
1-
1.
1/
00
x1
12
x3
04
x5
06
x7
x8
09
x:
0;
$end
#122
01
#456
07
#642
05
#851
08
#909
0:
#3166
0&
#3178
0%
#3185
0'
#3477
0$
#4916
13
#30000
1#
0(
#30989
10
#31111
11
#32595
14
#32918
03
#33237
15
#35780
1'
#60000
0#
1(
#60989
00
#61111
01
#90000
1#
0(
#90989
10
#91111
11
#92595
04
16
#92918
05
13
#93237
15
#95761
1&
#95780
0'
#120000
0#
1(
#120989
00
#121111
01
#150000
1#
0(
#150989
10
#151111
11
#152595
14
#152918
03
#153184
17
#153237
05
#153579
18
#155780
1'
#180000
0#
1(
#180989
00
#181111
01
#210000
1#
0(
#210989
10
#211111
11
#212595
04
06
19
#212918
08
15
13
#213051
07
#213237
05
#213446
18
#215761
0&
#215773
1%
#215780
0'
#240000
0#
1(
#240989
00
#241111
01
#270000
1#
0(
#270989
10
#271111
11
#272595
14
#272918
03
#273237
15
#275780
1'
#300000
0#
1(
#300989
00
#301111
01
#330000
1#
0(
#330989
10
#331111
11
#332595
04
16
#332918
05
13
#333237
15
#335761
1&
#335780
0'
#360000
0#
1(
#360989
00
#361111
01
#390000
1#
0(
#390989
10
#391111
11
#392595
14
#392918
03
#393184
17
#393237
05
#393579
08
#393580
1:
#395780
1'
#420000
0#
1(
#420989
00
#421111
01
#450000
1#
0(
#450989
10
#451111
11
#452595
1;
04
06
09
#452918
18
15
13
0:
#453051
07
#453237
05
#453446
08
#453504
1:
#455761
0&
#455773
0%
#455780
0'
#456072
1$
#480000
0!
0#
1(
#480852
02
#480989
00
#481111
01
#485768
03
#510000
1#
0(
#510989
10
#511111
11
#540000
0#
1(
#540989
00
#541111
01
#570000
1#
0(
#570989
10
#571111
11
#600000
0"
1!
0#
1(
#600852
12
#600979
0/
#600989
00
#601111
01
#630000
1#
0(
#630989
10
#631111
11
#660000
0#
1(
#660989
00
#661111
01
#690000
1#
0(
#690989
10
#691111
11
#720000
0!
0#
1(
#720852
02
#720989
00
#721111
01
#750000
1#
0(
#750989
10
#751111
11
#780000
0#
1(
#780989
00
#781111
01
#810000
1#
0(
#810989
10
#811111
11
#840000
1"
1!
0#
1(
#840852
12
#840979
1/
#840989
00
#841111
01
#845768
13
#870000
1#
0(
#870989
10
#871111
11
#872595
14
#872918
03
#873237
15
#875780
1'
#900000
0#
1(
#900989
00
#901111
01
#930000
1#
0(
#930989
10
#931111
11
#932595
04
16
#932918
05
13
#933237
15
#935761
1&
#935780
0'
#960000
0#
1(
#960989
00
#961111
01
#990000
1#
0(
#990989
10
#991111
11
#992595
14
#992918
03
#993184
17
#993237
05
#993579
18
#995780
1'
