hw4/sync_counter/simulation/qsim/sync_counter.msim.vcd
$comment
	File created using the following command:
		vcd file sync_counter.msim.vcd -direction
$end
$date
	Wed May 09 21:45:47 2018
$end
$version
	ModelSim Version 10.1d
$end
$timescale
	1ps
$end
$scope module sync_counter_vlg_vec_tst $end
$var reg 1 ! a $end
$var reg 1 " b $end
$var reg 1 # clk $end
$var wire 1 $ q_vec [0] $end
$var wire 1 % q_vec [1] $end
$var wire 1 & q_vec [2] $end
$var wire 1 ' q_vec [3] $end
$var wire 1 ( sampler $end
$scope module i1 $end
$var wire 1 ) gnd $end
$var wire 1 * vcc $end
$var wire 1 + unknown $end
$var tri1 1 , devclrn $end
$var tri1 1 - devpor $end
$var tri1 1 . devoe $end
$var wire 1 / a~combout $end
$var wire 1 0 b~combout $end
$var wire 1 1 cell0|x~combout $end
$upscope $end
$upscope $end
$enddefinitions $end
#0
$dumpvars
1!
1"
0#
0'
0&
0%
x$
x(
0)
1*
x+
1,
1-
1.
1/
10
x1
$end
#781
11
#4354
1$
#30000
1#
0(
#60000
0!
0"
0#
1(
#60979
00
#60989
0/
#61427
01
#65000
0$
#90000
1#
0(
#120000
0#
1(
#150000
1#
0(
#180000
0#
1(
#210000
1#
0(
#240000
0#
1(
#270000
1#
0(
#300000
0#
1(
#330000
1#
0(
#360000
0#
1(
#390000
1#
0(
#420000
0#
1(
#450000
1#
0(
#480000
0#
1(
#510000
1#
0(
#540000
0#
1(
#570000
1#
0(
#600000
0#
1(
#630000
1#
0(
#660000
0#
1(
#690000
1#
0(
#720000
0#
1(
#750000
1#
0(
#780000
0#
1(
#810000
1#
0(
#840000
0#
1(
#870000
1#
0(
#900000
0#
1(
#930000
1#
0(
#960000
0#
1(
#990000
1#
0(
